execution_time;pilot_number;transaction_id;nums
2022-01-24 16:06:01;6281119581389;SMS202201241606016177724;4008
2022-01-24 16:06:01;6281119581389;SMS202201241606016177763;4008
2022-01-24 16:06:01;6281119581389;SMS202201241606010012324;4008
2022-01-24 16:06:01;6281119581389;SMS202201241606010012353;4008
2022-01-24 16:06:01;6281119581389;SMS202201241606016177755;4008
2022-01-24 16:06:01;6281119581389;SMS202201241606016177730;4008
2022-01-24 16:06:01;6281119581389;SMS202201241606016177781;4008
2022-01-24 16:06:01;6281119581389;SMS202201241606016177716;4008
2022-01-24 16:06:01;6281119581389;SMS202201241606016177797;4008
2022-01-24 16:06:01;6281119581389;SMS202201241606018594995;4008
2022-01-24 16:13:00;6281119581389;SMS202201241613008594910;4008
2022-01-25 14:55:30;6281119581389;SMS202201251455306177796;4008
2022-01-25 15:46:18;6281119581389;SMS202201251546186177733;4008
2022-01-25 15:46:18;6281119581389;SMS202201251546186177725;4008
2022-01-25 15:46:18;6281119581389;SMS202201251546186177739;4008
2022-01-25 15:46:18;6281119581389;SMS202201251546186177779;4008
2022-01-25 15:46:18;6281119581389;SMS202201251546186177784;4008
2022-01-25 15:46:18;6281119581389;SMS202201251546186177773;4008
2022-01-25 15:46:18;6281119581389;SMS202201251546186177712;4008
2022-01-25 15:46:18;6281119581389;SMS202201251546186177715;4008
2022-01-25 15:46:18;6281119581389;SMS202201251546186177762;4008
2022-01-25 15:46:18;6281119581389;SMS202201251546186177759;4008
2022-01-25 15:46:19;6281119581389;SMS202201251546186177753;4008
2022-01-25 15:46:18;6281119581389;SMS202201251546186177770;4008
2022-01-25 15:46:19;6281119581389;SMS202201251546186177754;4008
2022-01-25 15:46:19;6281119581389;SMS202201251546186177715;4008
2022-01-25 15:46:18;6281119581389;SMS202201251546186177767;4008
2022-01-25 15:46:19;6281119581389;SMS202201251546186177735;4008
2022-01-25 15:46:19;6281119581389;SMS202201251546186177763;4008
2022-01-25 15:46:19;6281119581389;SMS202201251546186177775;4008
2022-01-25 15:46:19;6281119581389;SMS202201251546186177776;4008
2022-01-25 15:46:19;6281119581389;SMS202201251546186177794;4008
2022-01-25 15:46:19;6281119581389;SMS202201251546186177723;4008
2022-01-25 15:46:19;6281119581389;SMS202201251546186177760;4008
2022-01-25 15:46:19;6281119581389;SMS202201251546186177784;4008
2022-01-25 15:46:19;6281119581389;SMS202201251546186177777;4008
2022-01-25 15:46:19;6281119581389;SMS202201251546186177765;4008
2022-01-25 15:46:19;6281119581389;SMS202201251546186177741;4008
2022-01-25 15:46:19;6281119581389;SMS202201251546186177739;4008
2022-01-25 15:46:19;6281119581389;SMS202201251546186177734;4008
2022-01-25 15:46:19;6281119581389;SMS202201251546186177725;4008
2022-01-25 15:46:19;6281119581389;SMS202201251546186177764;4008
2022-01-25 15:46:19;6281119581389;SMS202201251546186177722;4008
2022-01-25 15:46:19;6281119581389;SMS202201251546186177722;4008
2022-01-25 15:46:19;6281119581389;SMS202201251546186177722;4008
2022-01-25 15:46:19;6281119581389;SMS202201251546186177730;4008
2022-01-25 15:46:19;6281119581389;SMS202201251546186177761;4008
2022-01-25 15:46:19;6281119581389;SMS202201251546186177791;4008
2022-01-25 15:46:19;6281119581389;SMS202201251546186177751;4008
2022-01-25 15:46:19;6281119581389;SMS202201251546186177713;4008
2022-01-25 15:46:19;6281119581389;SMS202201251546196177794;4008
2022-01-25 15:46:19;6281119581389;SMS202201251546186177798;4008
2022-01-25 15:46:19;6281119581389;SMS202201251546186177722;4008
2022-01-25 15:46:19;6281119581389;SMS202201251546186177798;4008
2022-01-25 15:46:19;6281119581389;SMS202201251546186177754;4008
2022-01-25 15:46:19;6281119581389;SMS202201251546186177783;4008
2022-01-25 15:46:19;6281119581389;SMS202201251546186177760;4008
2022-01-25 15:46:19;6281119581389;SMS202201251546186177727;4008
2022-01-25 15:46:19;6281119581389;SMS202201251546186177743;4008
2022-01-25 15:46:19;6281119581389;SMS202201251546186177713;4008
2022-01-25 15:46:19;6281119581389;SMS202201251546186177742;4008
2022-01-25 15:46:22;6281119581389;SMS202201251546226177735;4008
2022-01-25 15:46:22;6281119581389;SMS202201251546226177744;4008
2022-01-25 15:46:22;6281119581389;SMS202201251546226177719;4008
2022-01-25 15:46:22;6281119581389;SMS202201251546226177741;4008
2022-01-25 15:46:22;6281119581389;SMS202201251546226177741;4008
2022-01-25 15:46:22;6281119581389;SMS202201251546226177784;4008
2022-01-25 15:46:22;6281119581389;SMS202201251546226177737;4008
2022-01-25 15:46:22;6281119581389;SMS202201251546226177799;4008
2022-01-25 15:46:22;6281119581389;SMS202201251546226177746;4008
2022-01-25 15:46:22;6281119581389;SMS202201251546226177711;4008
2022-01-25 15:46:22;6281119581389;SMS202201251546226177797;4008
2022-01-25 15:46:22;6281119581389;SMS202201251546226177775;4008
2022-01-25 15:46:22;6281119581389;SMS202201251546226177728;4008
2022-01-25 15:46:22;6281119581389;SMS202201251546226177736;4008
2022-01-25 15:46:22;6281119581389;SMS202201251546226177785;4008
2022-01-25 15:46:22;6281119581389;SMS202201251546226177722;4008
2022-01-25 15:46:22;6281119581389;SMS202201251546226177722;4008
2022-01-25 15:46:22;6281119581389;SMS202201251546226177793;4008
2022-01-25 15:46:22;6281119581389;SMS202201251546226177783;4008
2022-01-25 15:46:22;6281119581389;SMS202201251546226177775;4008
2022-01-25 15:46:22;6281119581389;SMS202201251546226177711;4008
2022-01-25 15:46:22;6281119581389;SMS202201251546226177725;4008
2022-01-25 15:46:22;6281119581389;SMS202201251546226177716;4008
2022-01-25 15:46:22;6281119581389;SMS202201251546226177761;4008
2022-01-25 15:46:22;6281119581389;SMS202201251546226177778;4008
2022-01-25 15:46:22;6281119581389;SMS202201251546226177711;4008
2022-01-25 15:46:22;6281119581389;SMS202201251546226177753;4008
2022-01-25 15:46:22;6281119581389;SMS202201251546226177762;4008
2022-01-25 15:46:22;6281119581389;SMS202201251546226177722;4008
2022-01-25 15:46:22;6281119581389;SMS202201251546226177744;4008
2022-01-25 15:46:22;6281119581389;SMS202201251546226177743;4008
2022-01-25 15:46:22;6281119581389;SMS202201251546226177729;4008
2022-01-25 15:46:22;6281119581389;SMS202201251546226177799;4008
2022-01-25 15:46:22;6281119581389;SMS202201251546226177759;4008
2022-01-25 15:46:22;6281119581389;SMS202201251546226177780;4008
2022-01-25 15:46:22;6281119581389;SMS202201251546226177799;4008
2022-01-25 15:46:22;6281119581389;SMS202201251546226177750;4008
2022-01-25 15:46:22;6281119581389;SMS202201251546226177751;4008
2022-01-25 15:46:22;6281119581389;SMS202201251546226177742;4008
2022-01-25 15:46:22;6281119581389;SMS202201251546226177734;4008
2022-01-25 15:46:22;6281119581389;SMS202201251546226177715;4008
2022-01-25 15:46:22;6281119581389;SMS202201251546226177713;4008
2022-01-25 15:46:22;6281119581389;SMS202201251546226177730;4008
2022-01-25 15:46:22;6281119581389;SMS202201251546226177775;4008
2022-01-25 15:46:22;6281119581389;SMS202201251546226177722;4008
2022-01-25 15:46:22;6281119581389;SMS202201251546226177710;4008
2022-01-25 15:46:23;6281119581389;SMS202201251546226177714;4008
2022-01-25 15:46:23;6281119581389;SMS202201251546226177750;4008
2022-01-25 15:46:23;6281119581389;SMS202201251546226177713;4008
2022-01-25 15:46:23;6281119581389;SMS202201251546226177735;4008
2022-01-25 15:46:23;6281119581389;SMS202201251546226177794;4008
2022-01-25 15:46:23;6281119581389;SMS202201251546226177782;4008
2022-01-25 15:46:23;6281119581389;SMS202201251546226177771;4008
2022-01-25 15:46:23;6281119581389;SMS202201251546226177754;4008
2022-01-25 15:46:23;6281119581389;SMS202201251546226177754;4008
2022-01-25 15:46:23;6281119581389;SMS202201251546226177790;4008
2022-01-25 15:46:24;6281119581389;SMS202201251546246177728;4008
2022-01-25 15:46:23;6281119581389;SMS202201251546226177764;4008
2022-01-25 15:46:23;6281119581389;SMS202201251546226177754;4008
2022-01-25 15:46:23;6281119581389;SMS202201251546226177792;4008
2022-01-25 15:46:23;6281119581389;SMS202201251546236177743;4008
2022-01-25 15:46:23;6281119581389;SMS202201251546236177761;4008
2022-01-25 15:46:22;6281119581389;SMS202201251546226177766;4008
2022-01-25 15:46:23;6281119581389;SMS202201251546236177798;4008
2022-01-25 15:46:24;6281119581389;SMS202201251546236177759;4008
2022-01-25 15:46:24;6281119581389;SMS202201251546236177777;4008
2022-01-25 15:46:24;6281119581389;SMS202201251546236177737;4008
2022-01-25 15:46:24;6281119581389;SMS202201251546236177777;4008
2022-01-25 15:46:24;6281119581389;SMS202201251546236177720;4008
2022-01-25 15:46:24;6281119581389;SMS202201251546236177737;4008
2022-01-25 15:46:24;6281119581389;SMS202201251546236177772;4008
2022-01-25 15:46:24;6281119581389;SMS202201251546236177740;4008
2022-01-25 15:46:24;6281119581389;SMS202201251546236177750;4008
2022-01-25 15:46:26;6281119581389;SMS202201251546266177785;4008
2022-01-25 15:46:26;6281119581389;SMS202201251546266177768;4008
2022-01-25 15:46:36;6281119581389;SMS202201251546356177776;4008
2022-01-25 15:46:36;6281119581389;SMS202201251546366177792;4008
2022-01-25 15:46:36;6281119581389;SMS202201251546366177742;4008
2022-01-25 15:46:37;6281119581389;SMS202201251546366177781;4008
2022-01-25 15:46:37;6281119581389;SMS202201251546366177795;4008
2022-01-25 15:46:37;6281119581389;SMS202201251546376177741;4008
2022-01-25 15:46:37;6281119581389;SMS202201251546376177747;4008
2022-01-25 15:46:37;6281119581389;SMS202201251546376177775;4008
2022-01-25 15:46:38;6281119581389;SMS202201251546376177718;4008
2022-01-25 15:46:38;6281119581389;SMS202201251546376177753;4008
2022-01-25 15:46:38;6281119581389;SMS202201251546386177711;4008
2022-01-25 15:46:39;6281119581389;SMS202201251546386177729;4008
2022-01-25 15:46:38;6281119581389;SMS202201251546386177746;4008
2022-01-25 15:46:39;6281119581389;SMS202201251546396177785;4008
2022-01-25 15:46:39;6281119581389;SMS202201251546396177765;4008
2022-01-25 15:46:39;6281119581389;SMS202201251546396177795;4008
2022-01-25 15:48:33;6281119581389;SMS202201251548326177753;4008
2022-01-25 15:48:33;6281119581389;SMS202201251548326177716;4008
2022-01-25 15:48:33;6281119581389;SMS202201251548326177726;4008
2022-01-25 15:48:33;6281119581389;SMS202201251548326177797;4008
2022-01-25 15:48:33;6281119581389;SMS202201251548326177713;4008
2022-01-25 15:48:33;6281119581389;SMS202201251548326177783;4008
2022-01-25 15:48:33;6281119581389;SMS202201251548326177754;4008
2022-01-25 15:48:33;6281119581389;SMS202201251548326177775;4008
2022-01-25 15:48:33;6281119581389;SMS202201251548326177784;4008
2022-01-25 15:48:33;6281119581389;SMS202201251548326177781;4008
2022-01-25 15:48:33;6281119581389;SMS202201251548326177721;4008
2022-01-25 15:48:33;6281119581389;SMS202201251548326177748;4008
2022-01-25 15:48:33;6281119581389;SMS202201251548326177778;4008
2022-01-25 15:48:34;6281119581389;SMS202201251548336177749;4008
2022-01-25 15:48:34;6281119581389;SMS202201251548336177778;4008
2022-01-25 15:48:33;6281119581389;SMS202201251548336177727;4008
2022-01-25 15:48:34;6281119581389;SMS202201251548336177733;4008
2022-01-25 15:48:34;6281119581389;SMS202201251548336177756;4008
2022-01-25 15:48:34;6281119581389;SMS202201251548336177777;4008
2022-01-25 15:48:34;6281119581389;SMS202201251548336177726;4008
2022-01-25 15:48:34;6281119581389;SMS202201251548336177741;4008
2022-01-25 15:48:34;6281119581389;SMS202201251548336177760;4008
2022-01-25 15:48:34;6281119581389;SMS202201251548336177719;4008
2022-01-25 15:48:34;6281119581389;SMS202201251548336177715;4008
2022-01-25 15:48:34;6281119581389;SMS202201251548336177777;4008
2022-01-25 15:48:34;6281119581389;SMS202201251548336177767;4008
2022-01-25 15:48:34;6281119581389;SMS202201251548336177796;4008
2022-01-25 15:48:34;6281119581389;SMS202201251548336177735;4008
2022-01-25 15:48:34;6281119581389;SMS202201251548336177731;4008
2022-01-25 15:48:34;6281119581389;SMS202201251548336177729;4008
2022-01-25 15:48:34;6281119581389;SMS202201251548336177787;4008
2022-01-25 15:48:34;6281119581389;SMS202201251548336177734;4008
2022-01-25 15:48:34;6281119581389;SMS202201251548336177757;4008
2022-01-25 15:48:34;6281119581389;SMS202201251548336177716;4008
2022-01-25 15:48:34;6281119581389;SMS202201251548336177738;4008
2022-01-25 15:48:34;6281119581389;SMS202201251548336177778;4008
2022-01-25 15:48:34;6281119581389;SMS202201251548336177780;4008
2022-01-25 15:48:34;6281119581389;SMS202201251548336177764;4008
2022-01-25 15:48:34;6281119581389;SMS202201251548336177791;4008
2022-01-25 15:48:34;6281119581389;SMS202201251548336177728;4008
2022-01-25 15:48:34;6281119581389;SMS202201251548336177728;4008
2022-01-25 15:48:34;6281119581389;SMS202201251548336177760;4008
2022-01-25 15:48:34;6281119581389;SMS202201251548336177770;4008
2022-01-25 15:48:34;6281119581389;SMS202201251548336177724;4008
2022-01-25 15:48:34;6281119581389;SMS202201251548336177716;4008
2022-01-25 15:48:34;6281119581389;SMS202201251548336177776;4008
2022-01-25 15:48:34;6281119581389;SMS202201251548336177776;4008
2022-01-25 15:48:34;6281119581389;SMS202201251548336177728;4008
2022-01-25 15:48:34;6281119581389;SMS202201251548336177784;4008
2022-01-25 15:48:34;6281119581389;SMS202201251548336177788;4008
2022-01-25 15:48:34;6281119581389;SMS202201251548336177781;4008
2022-01-25 15:48:34;6281119581389;SMS202201251548336177774;4008
2022-01-25 15:48:34;6281119581389;SMS202201251548336177713;4008
2022-01-25 15:48:34;6281119581389;SMS202201251548336177714;4008
2022-01-25 15:48:34;6281119581389;SMS202201251548346177785;4008
2022-01-25 15:48:34;6281119581389;SMS202201251548346177734;4008
2022-01-25 15:48:34;6281119581389;SMS202201251548346177758;4008
2022-01-25 15:48:34;6281119581389;SMS202201251548346177746;4008
2022-01-25 15:48:35;6281119581389;SMS202201251548346177781;4008
2022-01-25 15:48:35;6281119581389;SMS202201251548346177757;4008
2022-01-25 15:48:34;6281119581389;SMS202201251548346177757;4008
2022-01-25 15:48:34;6281119581389;SMS202201251548346177760;4008
2022-01-25 15:48:35;6281119581389;SMS202201251548346177750;4008
2022-01-25 15:48:34;6281119581389;SMS202201251548346177752;4008
2022-01-25 15:48:35;6281119581389;SMS202201251548346177777;4008
2022-01-25 15:48:34;6281119581389;SMS202201251548346177785;4008
2022-01-25 15:48:34;6281119581389;SMS202201251548346177796;4008
2022-01-25 15:48:34;6281119581389;SMS202201251548346177717;4008
2022-01-25 15:48:34;6281119581389;SMS202201251548346177779;4008
2022-01-25 15:48:34;6281119581389;SMS202201251548346177766;4008
2022-01-25 15:48:34;6281119581389;SMS202201251548346177724;4008
2022-01-25 15:48:35;6281119581389;SMS202201251548346177756;4008
2022-01-25 15:48:35;6281119581389;SMS202201251548346177785;4008
2022-01-25 15:48:35;6281119581389;SMS202201251548346177742;4008
2022-01-25 15:48:34;6281119581389;SMS202201251548346177790;4008
2022-01-25 15:48:35;6281119581389;SMS202201251548346177783;4008
2022-01-25 15:48:35;6281119581389;SMS202201251548346177788;4008
2022-01-25 15:48:35;6281119581389;SMS202201251548346177767;4008
2022-01-25 15:48:35;6281119581389;SMS202201251548346177772;4008
2022-01-25 15:48:35;6281119581389;SMS202201251548346177763;4008
2022-01-25 15:48:35;6281119581389;SMS202201251548346177751;4008
2022-01-25 15:48:35;6281119581389;SMS202201251548346177742;4008
2022-01-25 15:48:35;6281119581389;SMS202201251548346177785;4008
2022-01-25 15:48:35;6281119581389;SMS202201251548356177718;4008
2022-01-25 15:48:35;6281119581389;SMS202201251548356177726;4008
2022-01-25 15:48:35;6281119581389;SMS202201251548356177741;4008
2022-01-25 15:48:35;6281119581389;SMS202201251548356177740;4008
2022-01-25 15:48:35;6281119581389;SMS202201251548356177794;4008
2022-01-25 15:48:35;6281119581389;SMS202201251548356177770;4008
2022-01-25 15:48:35;6281119581389;SMS202201251548356177745;4008
2022-01-25 15:48:35;6281119581389;SMS202201251548356177717;4008
2022-01-25 15:48:35;6281119581389;SMS202201251548356177726;4008
2022-01-25 15:48:35;6281119581389;SMS202201251548356177749;4008
2022-01-25 15:48:35;6281119581389;SMS202201251548356177717;4008
2022-01-25 15:48:35;6281119581389;SMS202201251548356177712;4008
2022-01-25 15:48:35;6281119581389;SMS202201251548356177733;4008
2022-01-25 15:48:35;6281119581389;SMS202201251548356177752;4008
2022-01-25 15:48:35;6281119581389;SMS202201251548356177773;4008
2022-01-25 15:48:35;6281119581389;SMS202201251548356177766;4008
2022-01-25 15:48:36;6281119581389;SMS202201251548356177764;4008
2022-01-25 15:48:36;6281119581389;SMS202201251548356177759;4008
2022-01-25 15:48:36;6281119581389;SMS202201251548356177734;4008
2022-01-25 15:48:36;6281119581389;SMS202201251548356177757;4008
2022-01-25 15:48:36;6281119581389;SMS202201251548356177798;4008
2022-01-25 15:48:36;6281119581389;SMS202201251548356177746;4008
2022-01-25 15:48:36;6281119581389;SMS202201251548356177713;4008
2022-01-25 15:48:36;6281119581389;SMS202201251548356177786;4008
2022-01-25 15:48:36;6281119581389;SMS202201251548356177728;4008
2022-01-25 15:48:36;6281119581389;SMS202201251548366177776;4008
2022-01-25 15:48:37;6281119581389;SMS202201251548366177759;4008
2022-01-25 15:48:37;6281119581389;SMS202201251548366177768;4008
2022-01-25 15:48:37;6281119581389;SMS202201251548376177763;4008
2022-01-25 15:48:37;6281119581389;SMS202201251548376177717;4008
2022-01-25 15:48:37;6281119581389;SMS202201251548376177725;4008
2022-01-25 15:48:38;6281119581389;SMS202201251548376177794;4008
2022-01-25 15:48:38;6281119581389;SMS202201251548376177752;4008
2022-01-25 15:48:38;6281119581389;SMS202201251548386177798;4008
2022-01-25 15:48:38;6281119581389;SMS202201251548386177716;4008
2022-01-25 15:48:39;6281119581389;SMS202201251548386177768;4008
2022-01-25 15:48:39;6281119581389;SMS202201251548386177711;4008
2022-01-25 15:48:39;6281119581389;SMS202201251548386177789;4008
2022-01-25 15:48:39;6281119581389;SMS202201251548386177786;4008
2022-01-25 15:48:39;6281119581389;SMS202201251548396177774;4008
2022-01-25 15:48:40;6281119581389;SMS202201251548396177753;4008
2022-01-25 15:48:40;6281119581389;SMS202201251548396177733;4008
2022-01-25 15:48:40;6281119581389;SMS202201251548396177770;4008
2022-01-25 15:48:40;6281119581389;SMS202201251548406177783;4008
2022-01-25 15:48:40;6281119581389;SMS202201251548406177770;4008
2022-01-25 15:48:41;6281119581389;SMS202201251548406177766;4008
2022-01-25 15:48:41;6281119581389;SMS202201251548406177757;4008
2022-01-25 15:48:41;6281119581389;SMS202201251548406177794;4008
2022-01-25 15:48:41;6281119581389;SMS202201251548416177762;4008
2022-01-25 15:48:41;6281119581389;SMS202201251548416177715;4008
2022-01-25 15:48:42;6281119581389;SMS202201251548416177749;4008
2022-01-25 15:48:42;6281119581389;SMS202201251548416177798;4008
2022-01-25 15:48:42;6281119581389;SMS202201251548416177721;4008
2022-01-25 15:48:42;6281119581389;SMS202201251548416177748;4008
2022-01-25 15:48:42;6281119581389;SMS202201251548426177770;4008
2022-01-25 15:48:43;6281119581389;SMS202201251548426177726;4008
2022-01-25 15:48:43;6281119581389;SMS202201251548426177752;4008
2022-01-25 15:48:43;6281119581389;SMS202201251548436177798;4008
2022-01-25 15:48:43;6281119581389;SMS202201251548436177780;4008
2022-01-25 15:48:43;6281119581389;SMS202201251548436177761;4008
2022-01-25 15:48:43;6281119581389;SMS202201251548436177743;4008
2022-01-25 15:48:44;6281119581389;SMS202201251548446177711;4008
2022-01-25 15:48:44;6281119581389;SMS202201251548446177761;4008
2022-01-25 15:48:44;6281119581389;SMS202201251548446177752;4008
2022-01-25 15:48:44;6281119581389;SMS202201251548446177782;4008
2022-01-25 15:48:44;6281119581389;SMS202201251548446177799;4008
2022-01-25 15:48:45;6281119581389;SMS202201251548446177774;4008
2022-01-25 15:48:45;6281119581389;SMS202201251548456177767;4008
2022-01-25 15:48:45;6281119581389;SMS202201251548456177743;4008
2022-01-25 15:48:45;6281119581389;SMS202201251548456177784;4008
2022-01-25 15:48:46;6281119581389;SMS202201251548456177720;4008
2022-01-25 15:48:46;6281119581389;SMS202201251548456177768;4008
2022-01-25 15:48:46;6281119581389;SMS202201251548466177776;4008
2022-01-25 15:48:46;6281119581389;SMS202201251548466177734;4008
2022-01-25 15:48:47;6281119581389;SMS202201251548466177743;4008
2022-01-25 15:48:47;6281119581389;SMS202201251548466177777;4008
2022-01-25 15:48:47;6281119581389;SMS202201251548466177747;4008
2022-01-25 15:48:47;6281119581389;SMS202201251548476177793;4008
2022-01-25 15:48:47;6281119581389;SMS202201251548476177732;4008
2022-01-25 15:48:48;6281119581389;SMS202201251548476177794;4008
2022-01-25 15:48:48;6281119581389;SMS202201251548476177771;4008
2022-01-25 15:48:48;6281119581389;SMS202201251548486177750;4008
2022-01-25 15:48:48;6281119581389;SMS202201251548486177778;4008
2022-01-25 15:48:48;6281119581389;SMS202201251548486177797;4008
2022-01-25 15:48:49;6281119581389;SMS202201251548486177742;4008
2022-01-25 15:48:49;6281119581389;SMS202201251548486177762;4008
2022-01-25 15:48:49;6281119581389;SMS202201251548496177769;4008
2022-01-25 15:48:49;6281119581389;SMS202201251548496177747;4008
2022-01-25 15:48:49;6281119581389;SMS202201251548496177710;4008
2022-01-25 15:48:50;6281119581389;SMS202201251548496177747;4008
2022-01-25 15:48:50;6281119581389;SMS202201251548496177716;4008
2022-01-25 15:48:50;6281119581389;SMS202201251548506177725;4008
2022-01-25 15:48:50;6281119581389;SMS202201251548506177791;4008
2022-01-25 15:48:50;6281119581389;SMS202201251548506177727;4008
2022-01-25 15:48:51;6281119581389;SMS202201251548506177718;4008
2022-01-25 15:48:51;6281119581389;SMS202201251548506177757;4008
2022-01-25 15:48:51;6281119581389;SMS202201251548516177748;4008
2022-01-25 15:48:51;6281119581389;SMS202201251548516177758;4008
2022-01-25 15:48:51;6281119581389;SMS202201251548516177782;4008
2022-01-25 15:48:52;6281119581389;SMS202201251548516177713;4008
2022-01-25 15:48:52;6281119581389;SMS202201251548516177732;4008
2022-01-25 15:48:52;6281119581389;SMS202201251548526177760;4008
2022-01-25 15:49:42;6281119581389;SMS202201251549426177749;4008
2022-01-25 15:49:46;6281119581389;SMS202201251549456177781;4008
2022-01-25 15:49:52;6281119581389;SMS202201251549516177751;4008
2022-01-25 15:50:56;6281119581389;SMS202201251550556177751;4008
2022-01-25 15:50:56;6281119581389;SMS202201251550556177772;4008
2022-01-25 15:50:57;6281119581389;SMS202201251550566177762;4008
2022-01-25 15:50:57;6281119581389;SMS202201251550566177751;4008
2022-01-25 15:50:57;6281119581389;SMS202201251550566177775;4008
2022-01-25 15:50:58;6281119581389;SMS202201251550576177771;4008
2022-01-25 15:50:58;6281119581389;SMS202201251550576177796;4008
2022-01-25 15:50:59;6281119581389;SMS202201251550586177723;4008
2022-01-25 15:50:59;6281119581389;SMS202201251550586177736;4008
2022-01-25 15:51:00;6281119581389;SMS202201251550596177742;4008
2022-01-25 15:51:00;6281119581389;SMS202201251550596177722;4008
2022-01-25 15:51:00;6281119581389;SMS202201251550596177730;4008
2022-01-25 15:51:00;6281119581389;SMS202201251550596177749;4008
2022-01-25 15:51:01;6281119581389;SMS202201251551006177757;4008
2022-01-25 15:51:01;6281119581389;SMS202201251551006177777;4008
2022-01-25 15:51:01;6281119581389;SMS202201251551006177798;4008
2022-01-25 15:51:01;6281119581389;SMS202201251551006177720;4008
2022-01-25 15:51:01;6281119581389;SMS202201251551006177737;4008
2022-01-25 15:51:02;6281119581389;SMS202201251551016177726;4008
2022-01-25 15:51:02;6281119581389;SMS202201251551016177742;4008
2022-01-25 15:51:02;6281119581389;SMS202201251551016177753;4008
2022-01-25 15:51:02;6281119581389;SMS202201251551016177784;4008
2022-01-25 15:51:03;6281119581389;SMS202201251551026177714;4008
2022-01-25 15:51:03;6281119581389;SMS202201251551026177736;4008
2022-01-25 15:51:04;6281119581389;SMS202201251551036177713;4008
2022-01-25 15:51:04;6281119581389;SMS202201251551036177714;4008
2022-01-25 15:51:04;6281119581389;SMS202201251551036177778;4008
2022-01-25 15:51:04;6281119581389;SMS202201251551036177785;4008
2022-01-25 15:51:04;6281119581389;SMS202201251551036177732;4008
2022-01-25 15:51:05;6281119581389;SMS202201251551046177797;4008
2022-01-25 15:51:05;6281119581389;SMS202201251551046177776;4008
2022-01-25 15:51:05;6281119581389;SMS202201251551046177750;4008
2022-01-25 15:51:05;6281119581389;SMS202201251551046177757;4008
2022-01-25 15:51:06;6281119581389;SMS202201251551056177782;4008
2022-01-25 15:51:06;6281119581389;SMS202201251551056177775;4008
2022-01-25 15:51:06;6281119581389;SMS202201251551056177797;4008
2022-01-25 15:51:06;6281119581389;SMS202201251551056177725;4008
2022-01-25 15:51:06;6281119581389;SMS202201251551056177774;4008
2022-01-25 15:51:07;6281119581389;SMS202201251551066177760;4008
2022-01-25 15:51:07;6281119581389;SMS202201251551066177771;4008
2022-01-25 15:51:07;6281119581389;SMS202201251551066177723;4008
2022-01-25 15:51:07;6281119581389;SMS202201251551066177747;4008
2022-01-25 15:51:08;6281119581389;SMS202201251551076177729;4008
2022-01-25 15:51:08;6281119581389;SMS202201251551076177795;4008
2022-01-25 15:51:08;6281119581389;SMS202201251551076177719;4008
2022-01-25 15:51:08;6281119581389;SMS202201251551076177765;4008
2022-01-25 15:51:09;6281119581389;SMS202201251551086177778;4008
2022-01-25 15:51:09;6281119581389;SMS202201251551086177764;4008
2022-01-25 15:51:09;6281119581389;SMS202201251551086177777;4008
2022-01-25 15:51:09;6281119581389;SMS202201251551086177744;4008
2022-01-25 15:51:10;6281119581389;SMS202201251551096177723;4008
2022-01-25 15:51:10;6281119581389;SMS202201251551096177756;4008
2022-01-25 15:51:10;6281119581389;SMS202201251551096177741;4008
2022-01-25 15:51:10;6281119581389;SMS202201251551096177792;4008
2022-01-25 15:51:11;6281119581389;SMS202201251551106177774;4008
2022-01-25 15:51:11;6281119581389;SMS202201251551106177747;4008
2022-01-25 15:51:11;6281119581389;SMS202201251551106177768;4008
2022-01-25 15:51:12;6281119581389;SMS202201251551116177760;4008
2022-01-25 15:51:12;6281119581389;SMS202201251551116177728;4008
2022-01-25 15:51:12;6281119581389;SMS202201251551116177715;4008
2022-01-25 15:51:12;6281119581389;SMS202201251551116177734;4008
2022-01-25 15:51:13;6281119581389;SMS202201251551126177754;4008
2022-01-25 15:51:13;6281119581389;SMS202201251551126177739;4008
2022-01-25 15:51:13;6281119581389;SMS202201251551126177760;4008
2022-01-25 15:51:14;6281119581389;SMS202201251551136177794;4008
2022-01-25 15:51:14;6281119581389;SMS202201251551136177752;4008
2022-01-25 15:51:14;6281119581389;SMS202201251551136177737;4008
2022-01-25 15:51:14;6281119581389;SMS202201251551146177757;4008
2022-01-25 15:51:14;6281119581389;SMS202201251551146177724;4008
2022-01-25 15:51:15;6281119581389;SMS202201251551146177793;4008
2022-01-25 15:51:15;6281119581389;SMS202201251551146177744;4008
2022-01-25 15:51:15;6281119581389;SMS202201251551146177721;4008
2022-01-25 15:51:15;6281119581389;SMS202201251551146177727;4008
2022-01-25 15:51:16;6281119581389;SMS202201251551156177720;4008
2022-01-25 15:51:16;6281119581389;SMS202201251551156177725;4008
2022-01-25 15:53:06;6281119581389;SMS202201251553056177771;4008
2022-01-25 16:13:40;6281119581389;SMS202201251613396177788;4008
2022-01-25 16:13:40;6281119581389;SMS202201251613396177766;4008
2022-01-25 16:13:40;6281119581389;SMS202201251613396177758;4008
2022-01-25 16:13:40;6281119581389;SMS202201251613396177773;4008
2022-01-25 16:13:40;6281119581389;SMS202201251613396177756;4008
2022-01-25 16:13:40;6281119581389;SMS202201251613406177735;4008
2022-01-25 16:13:40;6281119581389;SMS202201251613406177741;4008
2022-01-25 16:13:40;6281119581389;SMS202201251613406177721;4008
2022-01-25 16:13:40;6281119581389;SMS202201251613406177799;4008
2022-01-25 16:13:40;6281119581389;SMS202201251613406177723;4008
2022-01-25 16:13:40;6281119581389;SMS202201251613406177734;4008
2022-01-25 16:13:40;6281119581389;SMS202201251613406177749;4008
2022-01-25 16:13:40;6281119581389;SMS202201251613406177798;4008
2022-01-25 16:13:40;6281119581389;SMS202201251613406177795;4008
2022-01-25 16:13:40;6281119581389;SMS202201251613406177721;4008
2022-01-25 16:13:40;6281119581389;SMS202201251613406177743;4008
2022-01-25 16:13:40;6281119581389;SMS202201251613406177788;4008
2022-01-25 16:13:40;6281119581389;SMS202201251613406177763;4008
2022-01-25 16:13:40;6281119581389;SMS202201251613406177788;4008
2022-01-25 16:13:40;6281119581389;SMS202201251613406177726;4008
2022-01-25 16:13:40;6281119581389;SMS202201251613406177763;4008
2022-01-25 16:13:40;6281119581389;SMS202201251613406177794;4008
2022-01-25 16:13:40;6281119581389;SMS202201251613406177744;4008
2022-01-25 16:13:40;6281119581389;SMS202201251613406177742;4008
2022-01-25 16:13:41;6281119581389;SMS202201251613406177780;4008
2022-01-25 16:13:40;6281119581389;SMS202201251613406177732;4008
2022-01-25 16:13:40;6281119581389;SMS202201251613406177742;4008
2022-01-25 16:13:40;6281119581389;SMS202201251613406177732;4008
2022-01-25 16:13:40;6281119581389;SMS202201251613406177734;4008
2022-01-25 16:13:40;6281119581389;SMS202201251613406177787;4008
2022-01-25 16:13:40;6281119581389;SMS202201251613406177750;4008
2022-01-25 16:13:40;6281119581389;SMS202201251613406177772;4008
2022-01-25 16:13:40;6281119581389;SMS202201251613406177726;4008
2022-01-25 16:13:40;6281119581389;SMS202201251613406177735;4008
2022-01-25 16:13:40;6281119581389;SMS202201251613406177746;4008
2022-01-25 16:13:40;6281119581389;SMS202201251613406177742;4008
2022-01-25 16:13:41;6281119581389;SMS202201251613406177745;4008
2022-01-25 16:13:41;6281119581389;SMS202201251613406177765;4008
2022-01-25 16:13:41;6281119581389;SMS202201251613406177765;4008
2022-01-25 16:13:41;6281119581389;SMS202201251613406177777;4008
2022-01-25 16:13:41;6281119581389;SMS202201251613406177737;4008
2022-01-25 16:13:41;6281119581389;SMS202201251613406177786;4008
2022-01-25 16:13:41;6281119581389;SMS202201251613406177715;4008
2022-01-25 16:13:41;6281119581389;SMS202201251613406177782;4008
2022-01-25 16:13:41;6281119581389;SMS202201251613406177792;4008
2022-01-25 16:13:41;6281119581389;SMS202201251613406177711;4008
2022-01-25 16:13:41;6281119581389;SMS202201251613406177745;4008
2022-01-25 16:13:41;6281119581389;SMS202201251613406177747;4008
2022-01-25 16:13:41;6281119581389;SMS202201251613406177725;4008
2022-01-25 16:13:41;6281119581389;SMS202201251613416177758;4008
2022-01-25 16:13:41;6281119581389;SMS202201251613416177724;4008
2022-01-25 16:13:41;6281119581389;SMS202201251613416177714;4008
2022-01-25 16:13:41;6281119581389;SMS202201251613416177782;4008
2022-01-25 16:13:41;6281119581389;SMS202201251613416177719;4008
2022-01-25 16:13:41;6281119581389;SMS202201251613416177744;4008
2022-01-25 16:13:41;6281119581389;SMS202201251613416177781;4008
2022-01-25 16:13:41;6281119581389;SMS202201251613416177760;4008
2022-01-25 16:13:41;6281119581389;SMS202201251613416177736;4008
2022-01-25 16:13:41;6281119581389;SMS202201251613416177731;4008
2022-01-25 16:13:41;6281119581389;SMS202201251613416177730;4008
2022-01-25 16:13:41;6281119581389;SMS202201251613416177751;4008
2022-01-25 16:13:41;6281119581389;SMS202201251613416177772;4008
2022-01-25 16:13:41;6281119581389;SMS202201251613416177788;4008
2022-01-25 16:13:41;6281119581389;SMS202201251613416177722;4008
2022-01-25 16:13:42;6281119581389;SMS202201251613416177779;4008
2022-01-25 16:13:42;6281119581389;SMS202201251613416177753;4008
2022-01-25 16:13:42;6281119581389;SMS202201251613416177780;4008
2022-01-25 16:13:42;6281119581389;SMS202201251613416177741;4008
2022-01-25 16:13:42;6281119581389;SMS202201251613416177759;4008
2022-01-25 16:13:42;6281119581389;SMS202201251613416177722;4008
2022-01-25 16:13:42;6281119581389;SMS202201251613416177783;4008
2022-01-25 16:13:42;6281119581389;SMS202201251613416177789;4008
2022-01-25 16:13:42;6281119581389;SMS202201251613416177766;4008
2022-01-25 16:13:42;6281119581389;SMS202201251613416177719;4008
2022-01-25 16:13:42;6281119581389;SMS202201251613426177722;4008
2022-01-25 16:13:42;6281119581389;SMS202201251613426177778;4008
2022-01-25 16:13:42;6281119581389;SMS202201251613426177769;4008
2022-01-25 16:13:42;6281119581389;SMS202201251613426177716;4008
2022-01-25 16:13:42;6281119581389;SMS202201251613426177717;4008
2022-01-25 16:13:42;6281119581389;SMS202201251613426177730;4008
2022-01-25 16:13:42;6281119581389;SMS202201251613426177731;4008
2022-01-25 16:13:42;6281119581389;SMS202201251613426177781;4008
2022-01-25 16:13:42;6281119581389;SMS202201251613426177715;4008
2022-01-25 16:13:42;6281119581389;SMS202201251613426177764;4008
2022-01-25 16:13:42;6281119581389;SMS202201251613426177711;4008
2022-01-25 16:13:43;6281119581389;SMS202201251613426177731;4008
2022-01-25 16:13:42;6281119581389;SMS202201251613426177796;4008
2022-01-25 16:13:42;6281119581389;SMS202201251613426177785;4008
2022-01-25 16:13:42;6281119581389;SMS202201251613426177712;4008
2022-01-25 16:13:42;6281119581389;SMS202201251613426177754;4008
2022-01-25 16:13:42;6281119581389;SMS202201251613426177743;4008
2022-01-25 16:13:42;6281119581389;SMS202201251613426177764;4008
2022-01-25 16:13:42;6281119581389;SMS202201251613426177741;4008
2022-01-25 16:13:42;6281119581389;SMS202201251613426177718;4008
2022-01-25 16:13:42;6281119581389;SMS202201251613426177755;4008
2022-01-25 16:13:42;6281119581389;SMS202201251613426177794;4008
2022-01-25 16:13:43;6281119581389;SMS202201251613426177746;4008
2022-01-25 16:13:43;6281119581389;SMS202201251613426177792;4008
2022-01-25 16:13:43;6281119581389;SMS202201251613426177759;4008
2022-01-25 16:13:43;6281119581389;SMS202201251613426177786;4008
2022-01-25 16:13:43;6281119581389;SMS202201251613436177751;4008
2022-01-25 16:13:44;6281119581389;SMS202201251613436177778;4008
2022-01-25 16:13:44;6281119581389;SMS202201251613436177783;4008
2022-01-25 16:13:44;6281119581389;SMS202201251613436177764;4008
2022-01-25 16:13:44;6281119581389;SMS202201251613446177748;4008
2022-01-25 16:13:44;6281119581389;SMS202201251613446177742;4008
2022-01-25 16:13:44;6281119581389;SMS202201251613446177746;4008
2022-01-25 16:13:45;6281119581389;SMS202201251613456177744;4008
2022-01-25 16:13:45;6281119581389;SMS202201251613446177719;4008
2022-01-25 16:13:45;6281119581389;SMS202201251613446177757;4008
2022-01-25 16:13:46;6281119581389;SMS202201251613456177752;4008
2022-01-25 16:13:46;6281119581389;SMS202201251613456177772;4008
2022-01-25 16:13:46;6281119581389;SMS202201251613456177749;4008
2022-01-25 16:13:46;6281119581389;SMS202201251613466177796;4008
2022-01-25 16:13:46;6281119581389;SMS202201251613466177765;4008
2022-01-25 16:13:47;6281119581389;SMS202201251613466177732;4008
2022-01-25 16:13:47;6281119581389;SMS202201251613466177758;4008
2022-01-25 16:13:47;6281119581389;SMS202201251613466177782;4008
2022-01-25 16:13:47;6281119581389;SMS202201251613476177729;4008
2022-01-25 16:13:47;6281119581389;SMS202201251613476177745;4008
2022-01-25 16:13:48;6281119581389;SMS202201251613476177717;4008
2022-01-25 16:13:48;6281119581389;SMS202201251613476177741;4008
2022-01-25 16:13:48;6281119581389;SMS202201251613486177731;4008
2022-01-25 16:13:48;6281119581389;SMS202201251613486177790;4008
2022-01-25 16:13:49;6281119581389;SMS202201251613486177747;4008
2022-01-25 16:13:49;6281119581389;SMS202201251613486177714;4008
2022-01-25 16:13:49;6281119581389;SMS202201251613496177793;4008
2022-01-25 16:13:49;6281119581389;SMS202201251613486177720;4008
2022-01-25 16:13:49;6281119581389;SMS202201251613496177721;4008
2022-01-25 16:13:50;6281119581389;SMS202201251613496177746;4008
2022-01-25 16:13:50;6281119581389;SMS202201251613496177732;4008
2022-01-25 16:13:50;6281119581389;SMS202201251613506177759;4008
2022-01-25 16:13:50;6281119581389;SMS202201251613506177799;4008
2022-01-25 16:13:51;6281119581389;SMS202201251613506177716;4008
2022-01-25 16:13:51;6281119581389;SMS202201251613506177796;4008
2022-01-25 16:13:51;6281119581389;SMS202201251613516177795;4008
2022-01-25 16:13:51;6281119581389;SMS202201251613516177791;4008
2022-01-25 16:13:51;6281119581389;SMS202201251613516177794;4008
2022-01-25 16:13:52;6281119581389;SMS202201251613516177792;4008
2022-01-25 16:13:52;6281119581389;SMS202201251613516177741;4008
2022-01-25 16:13:52;6281119581389;SMS202201251613526177777;4008
2022-01-25 16:13:52;6281119581389;SMS202201251613526177771;4008
2022-01-25 16:13:53;6281119581389;SMS202201251613526177719;4008
2022-01-25 16:13:53;6281119581389;SMS202201251613536177731;4008
2022-01-25 16:13:53;6281119581389;SMS202201251613526177760;4008
2022-01-25 16:13:53;6281119581389;SMS202201251613536177792;4008
2022-01-25 16:13:54;6281119581389;SMS202201251613536177722;4008
2022-01-25 16:13:54;6281119581389;SMS202201251613536177715;4008
2022-01-25 16:13:54;6281119581389;SMS202201251613546177736;4008
2022-01-25 16:13:55;6281119581389;SMS202201251613546177773;4008
2022-01-25 16:13:54;6281119581389;SMS202201251613546177745;4008
2022-01-25 16:13:55;6281119581389;SMS202201251613546177714;4008
2022-01-25 16:13:55;6281119581389;SMS202201251613556177742;4008
2022-01-25 16:13:55;6281119581389;SMS202201251613556177750;4008
2022-01-25 16:13:55;6281119581389;SMS202201251613556177754;4008
2022-01-25 16:13:56;6281119581389;SMS202201251613556177794;4008
2022-01-25 16:13:56;6281119581389;SMS202201251613566177769;4008
2022-01-25 16:13:56;6281119581389;SMS202201251613566177758;4008
2022-01-25 16:13:56;6281119581389;SMS202201251613566177772;4008
2022-01-25 16:13:56;6281119581389;SMS202201251613566177765;4008
